<?xml version="1.0" encoding="UTF-8" standalone="no"?>
<!-- Created with Inkscape (http://www.inkscape.org/) -->

<svg
   xmlns:dc="http://purl.org/dc/elements/1.1/"
   xmlns:cc="http://creativecommons.org/ns#"
   xmlns:rdf="http://www.w3.org/1999/02/22-rdf-syntax-ns#"
   xmlns:svg="http://www.w3.org/2000/svg"
   xmlns="http://www.w3.org/2000/svg"
   xmlns:sodipodi="http://sodipodi.sourceforge.net/DTD/sodipodi-0.dtd"
   xmlns:inkscape="http://www.inkscape.org/namespaces/inkscape"
   width="237.46898mm"
   height="103.05489mm"
   viewBox="0 0 237.46898 103.05489"
   version="1.1"
   id="svg8376"
   inkscape:version="0.92.5 (2060ec1f9f, 2020-04-08)"
   sodipodi:docname="dataFlow.svg">
  <defs
     id="defs8370">
    <marker
       inkscape:stockid="Arrow1Mend"
       orient="auto"
       refY="0"
       refX="0"
       id="Arrow1Mend"
       style="overflow:visible"
       inkscape:isstock="true">
      <path
         id="path1038"
         d="M 0,0 5,-5 -12.5,0 5,5 Z"
         style="fill:#00ff00;fill-opacity:1;fill-rule:evenodd;stroke:#00ff00;stroke-width:1.00000003pt;stroke-opacity:1"
         transform="matrix(-0.4,0,0,-0.4,-4,0)"
         inkscape:connector-curvature="0" />
    </marker>
    <marker
       inkscape:stockid="Arrow1Mend"
       orient="auto"
       refY="0"
       refX="0"
       id="Arrow1Mend-2"
       style="overflow:visible"
       inkscape:isstock="true">
      <path
         inkscape:connector-curvature="0"
         id="path1038-8"
         d="M 0,0 5,-5 -12.5,0 5,5 Z"
         style="fill:#ff0000;fill-opacity:1;fill-rule:evenodd;stroke:#ff0000;stroke-width:1.00000003pt;stroke-opacity:1"
         transform="matrix(-0.4,0,0,-0.4,-4,0)" />
    </marker>
  </defs>
  <sodipodi:namedview
     id="base"
     pagecolor="#ffffff"
     bordercolor="#666666"
     borderopacity="1.0"
     inkscape:pageopacity="0.0"
     inkscape:pageshadow="2"
     inkscape:zoom="1"
     inkscape:cx="546.83171"
     inkscape:cy="-155.53187"
     inkscape:document-units="mm"
     inkscape:current-layer="layer1"
     showgrid="false"
     fit-margin-top="20"
     fit-margin-left="20"
     fit-margin-right="20"
     fit-margin-bottom="20"
     inkscape:window-width="2560"
     inkscape:window-height="1416"
     inkscape:window-x="1920"
     inkscape:window-y="480"
     inkscape:window-maximized="1" />
  <metadata
     id="metadata8373">
    <rdf:RDF>
      <cc:Work
         rdf:about="">
        <dc:format>image/svg+xml</dc:format>
        <dc:type
           rdf:resource="http://purl.org/dc/dcmitype/StillImage" />
        <dc:title></dc:title>
      </cc:Work>
    </rdf:RDF>
  </metadata>
  <g
     inkscape:label="Layer 1"
     inkscape:groupmode="layer"
     id="layer1"
     transform="translate(14.091784,-1.9814726)">
    <g
       id="g9006"
       transform="translate(-7.9375,-1.0583333)">
      <rect
         ry="1.1644171"
         y="44.637993"
         x="14.205694"
         height="18.949032"
         width="48.846947"
         id="rect3235-9-8-7"
         style="opacity:1;fill:#0000ff;fill-opacity:0.33191492;stroke:#000000;stroke-width:0.71995556;stroke-miterlimit:4;stroke-dasharray:none;stroke-dashoffset:0" />
      <text
         id="text3239-3"
         y="51.705067"
         x="15.610419"
         style="font-style:normal;font-variant:normal;font-weight:normal;font-stretch:normal;font-size:7.05555534px;line-height:1.25;font-family:sans-serif;-inkscape-font-specification:'sans-serif, Normal';font-variant-ligatures:normal;font-variant-caps:normal;font-variant-numeric:normal;font-feature-settings:normal;text-align:start;letter-spacing:0px;word-spacing:0px;writing-mode:lr-tb;text-anchor:start;fill:#000000;fill-opacity:1;stroke:none;stroke-width:0.26458332"
         xml:space="preserve"><tspan
           style="stroke-width:0.26458332"
           y="51.705067"
           x="15.610419"
           id="tspan3237-6"
           sodipodi:role="line">Parent</tspan><tspan
           id="tspan8967"
           style="stroke-width:0.26458332"
           y="60.524509"
           x="15.610419"
           sodipodi:role="line">Component</tspan><tspan
           id="tspan8942"
           style="stroke-width:0.26458332"
           y="69.343956"
           x="15.610419"
           sodipodi:role="line" /></text>
    </g>
    <g
       id="g9013"
       transform="translate(46.0375,-1.0583333)">
      <rect
         ry="1.1644171"
         y="44.637993"
         x="108.13277"
         height="18.94903"
         width="48.846947"
         id="rect3235-9-8"
         style="opacity:1;fill:#0000ff;fill-opacity:0.33191492;stroke:#000000;stroke-width:0.71995556;stroke-miterlimit:4;stroke-dasharray:none;stroke-dashoffset:0" />
      <text
         id="text3239-3-5"
         y="51.813583"
         x="111.36823"
         style="font-style:normal;font-variant:normal;font-weight:normal;font-stretch:normal;font-size:7.05555534px;line-height:1.25;font-family:sans-serif;-inkscape-font-specification:'sans-serif, Normal';font-variant-ligatures:normal;font-variant-caps:normal;font-variant-numeric:normal;font-feature-settings:normal;text-align:start;letter-spacing:0px;word-spacing:0px;writing-mode:lr-tb;text-anchor:start;fill:#000000;fill-opacity:1;stroke:none;stroke-width:0.26458332"
         xml:space="preserve"><tspan
           style="stroke-width:0.26458332"
           y="51.813583"
           x="111.36823"
           id="tspan3237-6-6"
           sodipodi:role="line">Child</tspan><tspan
           id="tspan8969"
           style="stroke-width:0.26458332"
           y="60.633026"
           x="111.36823"
           sodipodi:role="line">Component</tspan><tspan
           id="tspan8942-9"
           style="stroke-width:0.26458332"
           y="69.452469"
           x="111.36823"
           sodipodi:role="line" /></text>
    </g>
    <path
       style="fill:none;stroke:#00ff00;stroke-width:1;stroke-linecap:butt;stroke-linejoin:miter;stroke-miterlimit:4;stroke-dasharray:none;stroke-opacity:1;marker-end:url(#Arrow1Mend)"
       d="m 59.531249,39.825001 c 13.31736,-4.321528 23.948974,-8.354388 40.745831,-8.202083 22.37167,0.588027 30.69167,3.615972 45.24375,8.202083"
       id="path9017"
       inkscape:connector-curvature="0"
       sodipodi:nodetypes="ccc" />
    <path
       style="fill:none;stroke:#ff0000;stroke-width:1;stroke-linecap:butt;stroke-linejoin:miter;stroke-miterlimit:4;stroke-dasharray:none;stroke-opacity:1;marker-end:url(#Arrow1Mend-2)"
       d="m 148.10323,69.105545 c -13.31736,4.321532 -23.94897,8.354392 -40.74583,8.202082 -22.371667,-0.58802 -30.691667,-3.61597 -45.243747,-8.202082"
       id="path9017-2"
       inkscape:connector-curvature="0"
       sodipodi:nodetypes="ccc" />
    <text
       xml:space="preserve"
       style="font-style:normal;font-variant:normal;font-weight:normal;font-stretch:normal;font-size:7.05555534px;line-height:1.25;font-family:sans-serif;-inkscape-font-specification:'sans-serif, Normal';font-variant-ligatures:normal;font-variant-caps:normal;font-variant-numeric:normal;font-feature-settings:normal;text-align:start;letter-spacing:0px;word-spacing:0px;writing-mode:lr-tb;text-anchor:start;fill:#00ff00;fill-opacity:1;stroke:none;stroke-width:0.26458332"
       x="90.752083"
       y="27.125"
       id="text11166"><tspan
         sodipodi:role="line"
         id="tspan11164"
         x="90.752083"
         y="27.125"
         style="fill:#00ff00;stroke-width:0.26458332">Props</tspan></text>
    <text
       xml:space="preserve"
       style="font-style:normal;font-variant:normal;font-weight:normal;font-stretch:normal;font-size:7.05555534px;line-height:1.25;font-family:sans-serif;-inkscape-font-specification:'sans-serif, Normal';font-variant-ligatures:normal;font-variant-caps:normal;font-variant-numeric:normal;font-feature-settings:normal;text-align:start;letter-spacing:0px;word-spacing:0px;writing-mode:lr-tb;text-anchor:start;fill:#ff0000;fill-opacity:1;stroke:#ff0000;stroke-width:0.26458332"
       x="79.639587"
       y="84.804161"
       id="text11170"><tspan
         sodipodi:role="line"
         id="tspan11168"
         x="79.639587"
         y="84.804161"
         style="fill:#ff0000;stroke:#ff0000;stroke-width:0.26458332">Custom Events</tspan></text>
  </g>
</svg>
